100 40
+yooo++oooooo+/-........................X                                                           
oyoosoossossosssssoo+///--..............X                                                           
os++oooo++oooo++++////////-.............X                                                           
+hoo++oooo++/////::---..................X                                                           
+yoooooo+////:-.........................X                                                           
oy+o+o+///:-............................X                                                           
+hooo/++/-..............................X                                                           
oy+o/++/-...............................X                                                           
syo++/:-................................X                                                           
+ho++:-.................................X                                                           
XXXXXXXXXXXXXXXXXXXXXXXXXXXXXXXXXXXXXXXXX                                                           
000000000000000000000000000000000000000000000000000000000000000000000000                            
0```````````````````````````````o//-```````````````````````````````````0                            
0```````````````````````````````s::.```````````````````````````````````0                            
0``````````````````````````````.h//.```````````````````````````````````0                            
0``````````````````````````````-h//-```````````````````````````````````0                            
0``````````````````````````````/ho/:.``````````````````````````````````0                            
0`````````````````````````````.oys+/-``````````````````````````````````0                            
0``........``````````````````.+oyoo+:.`````````````......``````````````0                            
0`.................`````````.+ooy+oo/:.................................0                            
0........................``-+oo+yoooo+:-...............................0                            
0........................./+ooooyoo+ooo+:..............................0                            
0......................:+ooo++oos++ooo+oo+:............................0                            
0.................-:/+oooo+oooo+yooo++oooooo+/-........................0                            
0..........:/+oooyssssossossosooyoosoossossosssssoo+///--..............0                            
0..........-////+++ooo+ooooo++oos++oooo++oooo++++////////-.............0                            
0...............--:://++oo++ooo+hoo++oooo++/////::---..................0                            
0.....................-:/+ooo+o+yoooooo+////:-.........................0                            
0........................-:/ooooy+o+o+///:-............................0                            
0..........................-:oo+hooo/++/-..............................0                            
0............................:ooy+o/++/-...............................0                            
0.............................:syo++/:-................................0                            
0..............................+ho++:-.................................0                            
0..........--------------------:y++/-.....................-----------..0                            
0....---------------------------y++/-----------------------------------0                            
0.------------------------------y++/-----------------------------------0                            
0-------------------------------+++:-----------------------------------0                            
0--------------------------------//:-----------------------------------0                            
000000000000000000000000000000000000000000000000000000000000000000000000                            
                                                                                                    
\newframe
                   X```s::.```````````````````````````````````X                  0                  
                   X``.h//.```````````````````````````````````X                  0                  
                   X``-h//-```````````````````````````````````X                  0                  
                   X``/ho/:.``````````````````````````````````X                  0                  
                   X`.oys+/-``````````````````````````````````X                  0                  
                   X.+oyoo+:.`````````````......``````````````X                  0                  
                   X+ooy+oo/:.................................X                  0                  
                   Xoo+yoooo+:-...............................X                  0                  
                   Xoooyoo+ooo+:..............................X                  0                  
                   X+oos++ooo+oo+:............................X                  0                  
                   Xoo+yooo++oooooo+/-........................X                  0                  
0000000000000000000Xsooyoosoossossosssssoo+///--..............X000000000         0                  
0``````````````````X+oos++oooo++oooo++++////////-.............X````````0         0                  
0``````````````````Xoo+hoo++oooo++/////::---..................X````````0         0                  
0``````````````````X+o+yoooooo+////:-.........................X````````0         0                  
0``````````````````Xoooy+o+o+///:-............................X````````0         0                  
0``````````````````Xoo+hooo/++/-..............................X````````0         0                  
0``````````````````X:ooy+o/++/-...............................X````````0         0                  
0``........````````X.:syo++/:-................................X````````0         0                  
0`.................X..+ho++:-.................................X........0         0                  
0..................XXXXXXXXXXXXXXXXXXXXXXXXXXXXXXXXXXXXXXXXXXXX........0         0                  
0........................./+ooooyoo+ooo+:..............................0         0                  
0......................:+ooo++oos++ooo+oo+:............................0         0                  
0........XXXXXXXXXXXXXXXXXXXXXXXXXXXXXXXXXXXXXXXXXXXXXXXXXXXXXXXXXXXXXXXXXXXXXXXX0                  
0........X......................:+ooo++oos++ooo+oo+:............................X0                  
0........X.................-:/+oooo+oooo+yooo++oooooo+/-........................X0                  
0........X..........:/+oooyssssossossosooyoosoossossosssssoo+///--..............X0                  
0........X..........-////+++ooo+ooooo++oos++oooo++oooo++++////////-.............X0                  
0........X...............--:://++oo++ooo+hoo++oooo++/////::---..................X0                  
0........X.....................-:/+ooo+o+yoooooo+////:-.........................X0                  
0........X........................-:/ooooy+o+o+///:-............................X0                  
0........X..........................-:oo+hooo/++/-..............................X0                  
0........X............................:ooy+o/++/-...............................X0                  
0........X.............................:syo++/:-................................X0                  
0....----X..............................+ho++:-.................................X0                  
0.-------X..........--------------------:y++/-.....................-----------..X0                  
0--------X....---------------------------y++/-----------------------------------X0                  
0--------X.------------------------------y++/-----------------------------------X0                  
000000000X-------------------------------+++:-----------------------------------X0                  
         X--------------------------------//:-----------------------------------X0                  
\newframe
        4                                                                        0                  
        4                                                                        0                  
        4                                                                        0                  
        4                                                                        0                  
        4                                                                        0                  
        4                                                                        0                  
        4                                                                        0                  
        4                                                                        0                  
        4                                                                        0                  
        4                                                                        0                  
        4                                                                        0                  
000000004000000000000000000000000000000000000000000000000000000000000000         0                  
0```````4```````````````````````o//-```````````````````````````````````0         0                  
0```````4```````````````````````s::.```````````````````````````````````0         0                  
0```````4``````````````````````.h//.```````````````````````````````````0         0                  
0```````4``````````````````````-h//-```````````````````````````````````0         0                  
0```````4``````````````````````/ho/:.``````````````````````````````````0         0                  
0```````4`````````````````````.oys+/-``````````````````````````````````0         0                  
0``.....4..``````````````````.+oyoo+:.`````````````......``````````````0         0                  
0`......4..........`````````.+ooy+oo/:.................................0         0                  
0.......4................``-+oo+yoooo+:-...............................0         0                  
0.......4................./+ooooyoo+ooo+:..............................0         0                  
0.......4..............:+ooo++oos++ooo+oo+:............................0         0                  
0.......4XXXXXXXXXXXXXXXXXXXXXXXXXXXXXXXXXXXXXXXXXXXXXXXXXXXXXXXXXXXXXXXXXXXXXXXX0                  
0.......4X......................:+ooo++oos++ooo+oo+:............................X0                  
0.......4X.................-:/+oooo+oooo+yooo++oooooo+/-........................X0                  
0.......4X..........:/+oooyssssossossosooyoosoossossosssssoo+///--..............X0                  
0.......4X..........-////+++ooo+ooooo++oos++oooo++oooo++++////////-.............X0                  
0.......4X...............--:://++oo++ooo+hoo++oooo++/////::---..................X0                  
0.......4X.....................-:/+ooo+o+yoooooo+////:-.........................X0                  
0.......4X........................-:/ooooy+o+o+///:-............................X0                  
0.......4X..........................-:oo+hooo/++/-..............................X0                  
0.......4X............................:ooy+o/++/-...............................X0                  
0.......4X.............................:syo++/:-................................X0                  
0....---4X..............................+ho++:-.................................X0                  
0.------4X..........--------------------:y++/-.....................-----------..X0                  
0-------4X....---------------------------y++/-----------------------------------X0                  
0-------4X.------------------------------y++/-----------------------------------X0                  
000000004X-------------------------------+++:-----------------------------------X0                  
        4X--------------------------------//:-----------------------------------X0                  

