<?xml version="1.0" encoding="UTF-8"?><svg xmlns="http://www.w3.org/2000/svg" xmlns:xlink="http://www.w3.org/1999/xlink" stroke-dasharray="none" shape-rendering="auto" font-family="'Dialog'" width="1019" text-rendering="auto" fill-opacity="1" contentScriptType="text/ecmascript" color-interpolation="auto" color-rendering="auto" preserveAspectRatio="xMidYMid meet" font-size="12" viewBox="19 -1 1019 533" fill="black" stroke="black" image-rendering="auto" stroke-miterlimit="10" zoomAndPan="magnify" version="1.0" stroke-linecap="square" stroke-linejoin="miter" contentStyleType="text/css" font-style="normal" height="533" stroke-width="1" stroke-dashoffset="0" font-weight="normal" stroke-opacity="1">
<!--Generated by the Batik Graphics2D SVG Generator-->
<defs id="genericDefs"/>
<g>
<defs id="defs1">
<clipPath clipPathUnits="userSpaceOnUse" id="clipPath1">
<path d="M756 231 L985 231 L985 244 L756 244 L756 231 Z"/>
</clipPath>
<clipPath clipPathUnits="userSpaceOnUse" id="clipPath2">
<path d="M756 242 L985 242 L985 345 L756 345 L756 242 Z"/>
</clipPath>
<clipPath clipPathUnits="userSpaceOnUse" id="clipPath3">
<path d="M821 244 L919 244 L919 262 L821 262 L821 244 Z"/>
</clipPath>
<clipPath clipPathUnits="userSpaceOnUse" id="clipPath4">
<path d="M-3 -2 L39 -2 L39 18 L-3 18 L-3 -2 Z"/>
</clipPath>
<clipPath clipPathUnits="userSpaceOnUse" id="clipPath5">
<path d="M849 260 L891 260 L891 280 L849 280 L849 260 Z"/>
</clipPath>
<clipPath clipPathUnits="userSpaceOnUse" id="clipPath6">
<path d="M703 1 L1036 1 L1036 14 L703 14 L703 1 Z"/>
</clipPath>
<clipPath clipPathUnits="userSpaceOnUse" id="clipPath7">
<path d="M703 12 L1036 12 L1036 224 L703 224 L703 12 Z"/>
</clipPath>
<clipPath clipPathUnits="userSpaceOnUse" id="clipPath8">
<path d="M820 14 L918 14 L918 32 L820 32 L820 14 Z"/>
</clipPath>
<clipPath clipPathUnits="userSpaceOnUse" id="clipPath9">
<path d="M-3 -2 L53 -2 L53 18 L-3 18 L-3 -2 Z"/>
</clipPath>
<clipPath clipPathUnits="userSpaceOnUse" id="clipPath10">
<path d="M841 30 L897 30 L897 50 L841 50 L841 30 Z"/>
</clipPath>
<clipPath clipPathUnits="userSpaceOnUse" id="clipPath11">
<path d="M744 399 L1011 399 L1011 412 L744 412 L744 399 Z"/>
</clipPath>
<clipPath clipPathUnits="userSpaceOnUse" id="clipPath12">
<path d="M744 410 L1011 410 L1011 524 L744 524 L744 410 Z"/>
</clipPath>
<clipPath clipPathUnits="userSpaceOnUse" id="clipPath13">
<path d="M828 412 L926 412 L926 430 L828 430 L828 412 Z"/>
</clipPath>
<clipPath clipPathUnits="userSpaceOnUse" id="clipPath14">
<path d="M-3 -2 L74 -2 L74 18 L-3 18 L-3 -2 Z"/>
</clipPath>
<clipPath clipPathUnits="userSpaceOnUse" id="clipPath15">
<path d="M838 428 L915 428 L915 448 L838 448 L838 428 Z"/>
</clipPath>
<clipPath clipPathUnits="userSpaceOnUse" id="clipPath16">
<path d="M21 8 L699 8 L699 21 L21 21 L21 8 Z"/>
</clipPath>
<clipPath clipPathUnits="userSpaceOnUse" id="clipPath17">
<path d="M21 19 L699 19 L699 530 L21 530 L21 19 Z"/>
</clipPath>
<clipPath clipPathUnits="userSpaceOnUse" id="clipPath18">
<path d="M310 21 L408 21 L408 39 L310 39 L310 21 Z"/>
</clipPath>
<clipPath clipPathUnits="userSpaceOnUse" id="clipPath19">
<path d="M-3 -2 L64 -2 L64 18 L-3 18 L-3 -2 Z"/>
</clipPath>
<clipPath clipPathUnits="userSpaceOnUse" id="clipPath20">
<path d="M326 37 L393 37 L393 57 L326 57 L326 37 Z"/>
</clipPath>
<clipPath clipPathUnits="userSpaceOnUse" id="clipPath21">
<path d="M401 40 L537 40 L537 95 L401 95 L401 40 Z"/>
</clipPath>
<clipPath clipPathUnits="userSpaceOnUse" id="clipPath22">
<path d="M426 42 L510 42 L510 60 L426 60 L426 42 Z"/>
</clipPath>
<clipPath clipPathUnits="userSpaceOnUse" id="clipPath23">
<path d="M-3 -2 L128 -2 L128 18 L-3 18 L-3 -2 Z"/>
</clipPath>
<clipPath clipPathUnits="userSpaceOnUse" id="clipPath24">
<path d="M403 58 L534 58 L534 78 L403 78 L403 58 Z"/>
</clipPath>
<clipPath clipPathUnits="userSpaceOnUse" id="clipPath25">
<path d="M448 76 L488 76 L488 92 L448 92 L448 76 Z"/>
</clipPath>
<clipPath clipPathUnits="userSpaceOnUse" id="clipPath26">
<path d="M446 445 L535 445 L535 500 L446 500 L446 445 Z"/>
</clipPath>
<clipPath clipPathUnits="userSpaceOnUse" id="clipPath27">
<path d="M448 447 L532 447 L532 465 L448 465 L448 447 Z"/>
</clipPath>
<clipPath clipPathUnits="userSpaceOnUse" id="clipPath28">
<path d="M-3 -2 L49 -2 L49 18 L-3 18 L-3 -2 Z"/>
</clipPath>
<clipPath clipPathUnits="userSpaceOnUse" id="clipPath29">
<path d="M464 463 L516 463 L516 483 L464 483 L464 463 Z"/>
</clipPath>
<clipPath clipPathUnits="userSpaceOnUse" id="clipPath30">
<path d="M470 481 L510 481 L510 497 L470 497 L470 481 Z"/>
</clipPath>
<clipPath clipPathUnits="userSpaceOnUse" id="clipPath31">
<path d="M173 345 L262 345 L262 400 L173 400 L173 345 Z"/>
</clipPath>
<clipPath clipPathUnits="userSpaceOnUse" id="clipPath32">
<path d="M175 347 L259 347 L259 365 L175 365 L175 347 Z"/>
</clipPath>
<clipPath clipPathUnits="userSpaceOnUse" id="clipPath33">
<path d="M-3 -2 L75 -2 L75 18 L-3 18 L-3 -2 Z"/>
</clipPath>
<clipPath clipPathUnits="userSpaceOnUse" id="clipPath34">
<path d="M178 363 L256 363 L256 383 L178 383 L178 363 Z"/>
</clipPath>
<clipPath clipPathUnits="userSpaceOnUse" id="clipPath35">
<path d="M197 381 L237 381 L237 397 L197 397 L197 381 Z"/>
</clipPath>
<clipPath clipPathUnits="userSpaceOnUse" id="clipPath36">
<path d="M65 329 L154 329 L154 384 L65 384 L65 329 Z"/>
</clipPath>
<clipPath clipPathUnits="userSpaceOnUse" id="clipPath37">
<path d="M67 331 L151 331 L151 349 L67 349 L67 331 Z"/>
</clipPath>
<clipPath clipPathUnits="userSpaceOnUse" id="clipPath38">
<path d="M83 347 L135 347 L135 367 L83 367 L83 347 Z"/>
</clipPath>
<clipPath clipPathUnits="userSpaceOnUse" id="clipPath39">
<path d="M89 365 L129 365 L129 381 L89 381 L89 365 Z"/>
</clipPath>
<clipPath clipPathUnits="userSpaceOnUse" id="clipPath40">
<path d="M882 282 L971 282 L971 337 L882 337 L882 282 Z"/>
</clipPath>
<clipPath clipPathUnits="userSpaceOnUse" id="clipPath41">
<path d="M884 284 L968 284 L968 302 L884 302 L884 284 Z"/>
</clipPath>
<clipPath clipPathUnits="userSpaceOnUse" id="clipPath42">
<path d="M-3 -2 L41 -2 L41 18 L-3 18 L-3 -2 Z"/>
</clipPath>
<clipPath clipPathUnits="userSpaceOnUse" id="clipPath43">
<path d="M904 300 L948 300 L948 320 L904 320 L904 300 Z"/>
</clipPath>
<clipPath clipPathUnits="userSpaceOnUse" id="clipPath44">
<path d="M914 318 L937 318 L937 334 L914 334 L914 318 Z"/>
</clipPath>
<clipPath clipPathUnits="userSpaceOnUse" id="clipPath45">
<path d="M49 457 L170 457 L170 512 L49 512 L49 457 Z"/>
</clipPath>
<clipPath clipPathUnits="userSpaceOnUse" id="clipPath46">
<path d="M51 459 L167 459 L167 477 L51 477 L51 459 Z"/>
</clipPath>
<clipPath clipPathUnits="userSpaceOnUse" id="clipPath47">
<path d="M-3 -2 L69 -2 L69 18 L-3 18 L-3 -2 Z"/>
</clipPath>
<clipPath clipPathUnits="userSpaceOnUse" id="clipPath48">
<path d="M73 475 L145 475 L145 495 L73 495 L73 475 Z"/>
</clipPath>
<clipPath clipPathUnits="userSpaceOnUse" id="clipPath49">
<path d="M89 493 L129 493 L129 509 L89 509 L89 493 Z"/>
</clipPath>
<clipPath clipPathUnits="userSpaceOnUse" id="clipPath50">
<path d="M256 446 L365 446 L365 501 L256 501 L256 446 Z"/>
</clipPath>
<clipPath clipPathUnits="userSpaceOnUse" id="clipPath51">
<path d="M268 448 L352 448 L352 466 L268 466 L268 448 Z"/>
</clipPath>
<clipPath clipPathUnits="userSpaceOnUse" id="clipPath52">
<path d="M-3 -2 L101 -2 L101 18 L-3 18 L-3 -2 Z"/>
</clipPath>
<clipPath clipPathUnits="userSpaceOnUse" id="clipPath53">
<path d="M258 464 L362 464 L362 484 L258 484 L258 464 Z"/>
</clipPath>
<clipPath clipPathUnits="userSpaceOnUse" id="clipPath54">
<path d="M290 482 L330 482 L330 498 L290 498 L290 482 Z"/>
</clipPath>
<clipPath clipPathUnits="userSpaceOnUse" id="clipPath55">
<path d="M551 293 L664 293 L664 348 L551 348 L551 293 Z"/>
</clipPath>
<clipPath clipPathUnits="userSpaceOnUse" id="clipPath56">
<path d="M565 295 L649 295 L649 313 L565 313 L565 295 Z"/>
</clipPath>
<clipPath clipPathUnits="userSpaceOnUse" id="clipPath57">
<path d="M-3 -2 L105 -2 L105 18 L-3 18 L-3 -2 Z"/>
</clipPath>
<clipPath clipPathUnits="userSpaceOnUse" id="clipPath58">
<path d="M553 311 L661 311 L661 331 L553 331 L553 311 Z"/>
</clipPath>
<clipPath clipPathUnits="userSpaceOnUse" id="clipPath59">
<path d="M587 329 L627 329 L627 345 L587 345 L587 329 Z"/>
</clipPath>
<clipPath clipPathUnits="userSpaceOnUse" id="clipPath60">
<path d="M51 54 L140 54 L140 109 L51 109 L51 54 Z"/>
</clipPath>
<clipPath clipPathUnits="userSpaceOnUse" id="clipPath61">
<path d="M53 56 L137 56 L137 74 L53 74 L53 56 Z"/>
</clipPath>
<clipPath clipPathUnits="userSpaceOnUse" id="clipPath62">
<path d="M-3 -2 L52 -2 L52 18 L-3 18 L-3 -2 Z"/>
</clipPath>
<clipPath clipPathUnits="userSpaceOnUse" id="clipPath63">
<path d="M67 72 L122 72 L122 92 L67 92 L67 72 Z"/>
</clipPath>
<clipPath clipPathUnits="userSpaceOnUse" id="clipPath64">
<path d="M75 90 L115 90 L115 106 L75 106 L75 90 Z"/>
</clipPath>
<clipPath clipPathUnits="userSpaceOnUse" id="clipPath65">
<path d="M728 40 L833 40 L833 95 L728 95 L728 40 Z"/>
</clipPath>
<clipPath clipPathUnits="userSpaceOnUse" id="clipPath66">
<path d="M730 42 L830 42 L830 60 L730 60 L730 42 Z"/>
</clipPath>
<clipPath clipPathUnits="userSpaceOnUse" id="clipPath67">
<path d="M746 58 L813 58 L813 78 L746 78 L746 58 Z"/>
</clipPath>
<clipPath clipPathUnits="userSpaceOnUse" id="clipPath68">
<path d="M764 76 L796 76 L796 92 L764 92 L764 76 Z"/>
</clipPath>
<clipPath clipPathUnits="userSpaceOnUse" id="clipPath69">
<path d="M883 138 L972 138 L972 193 L883 193 L883 138 Z"/>
</clipPath>
<clipPath clipPathUnits="userSpaceOnUse" id="clipPath70">
<path d="M885 140 L969 140 L969 158 L885 158 L885 140 Z"/>
</clipPath>
<clipPath clipPathUnits="userSpaceOnUse" id="clipPath71">
<path d="M899 156 L955 156 L955 176 L899 176 L899 156 Z"/>
</clipPath>
<clipPath clipPathUnits="userSpaceOnUse" id="clipPath72">
<path d="M911 174 L943 174 L943 190 L911 190 L911 174 Z"/>
</clipPath>
<clipPath clipPathUnits="userSpaceOnUse" id="clipPath73">
<path d="M783 453 L961 453 L961 508 L783 508 L783 453 Z"/>
</clipPath>
<clipPath clipPathUnits="userSpaceOnUse" id="clipPath74">
<path d="M829 455 L913 455 L913 473 L829 473 L829 455 Z"/>
</clipPath>
<clipPath clipPathUnits="userSpaceOnUse" id="clipPath75">
<path d="M-3 -2 L170 -2 L170 18 L-3 18 L-3 -2 Z"/>
</clipPath>
<clipPath clipPathUnits="userSpaceOnUse" id="clipPath76">
<path d="M785 471 L958 471 L958 491 L785 491 L785 471 Z"/>
</clipPath>
<clipPath clipPathUnits="userSpaceOnUse" id="clipPath77">
<path d="M848 489 L895 489 L895 505 L848 505 L848 489 Z"/>
</clipPath>
<clipPath clipPathUnits="userSpaceOnUse" id="clipPath78">
<path d="M102 78 L404 78 L404 332 L102 332 L102 78 Z"/>
</clipPath>
<clipPath clipPathUnits="userSpaceOnUse" id="clipPath79">
<path d="M387 78 L404 78 L404 91 L387 91 L387 78 Z"/>
</clipPath>
<clipPath clipPathUnits="userSpaceOnUse" id="clipPath80">
<path d="M831 54 L931 54 L931 141 L831 141 L831 54 Z"/>
</clipPath>
<clipPath clipPathUnits="userSpaceOnUse" id="clipPath81">
<path d="M842 54 L914 54 L914 74 L842 74 L842 54 Z"/>
</clipPath>
<clipPath clipPathUnits="userSpaceOnUse" id="clipPath82">
<path d="M842 78 L865 78 L865 96 L842 96 L842 78 Z"/>
</clipPath>
<clipPath clipPathUnits="userSpaceOnUse" id="clipPath83">
<path d="M831 71 L842 71 L842 82 L831 82 L831 71 Z"/>
</clipPath>
<clipPath clipPathUnits="userSpaceOnUse" id="clipPath84">
<path d="M91 382 L136 382 L136 460 L91 460 L91 382 Z"/>
</clipPath>
<clipPath clipPathUnits="userSpaceOnUse" id="clipPath85">
<path d="M91 428 L107 428 L107 448 L91 448 L91 428 Z"/>
</clipPath>
<clipPath clipPathUnits="userSpaceOnUse" id="clipPath86">
<path d="M111 430 L136 430 L136 448 L111 448 L111 430 Z"/>
</clipPath>
<clipPath clipPathUnits="userSpaceOnUse" id="clipPath87">
<path d="M104 449 L115 449 L115 460 L104 460 L104 449 Z"/>
</clipPath>
<clipPath clipPathUnits="userSpaceOnUse" id="clipPath88">
<path d="M490 93 L503 93 L503 448 L490 448 L490 93 Z"/>
</clipPath>
<clipPath clipPathUnits="userSpaceOnUse" id="clipPath89">
<path d="M490 93 L503 93 L503 110 L490 110 L490 93 Z"/>
</clipPath>
<clipPath clipPathUnits="userSpaceOnUse" id="clipPath90">
<path d="M363 451 L449 451 L449 493 L363 493 L363 451 Z"/>
</clipPath>
<clipPath clipPathUnits="userSpaceOnUse" id="clipPath91">
<path d="M424 451 L437 451 L437 471 L424 471 L424 451 Z"/>
</clipPath>
<clipPath clipPathUnits="userSpaceOnUse" id="clipPath92">
<path d="M412 475 L437 475 L437 493 L412 493 L412 475 Z"/>
</clipPath>
<clipPath clipPathUnits="userSpaceOnUse" id="clipPath93">
<path d="M438 468 L449 468 L449 479 L438 479 L438 468 Z"/>
</clipPath>
<clipPath clipPathUnits="userSpaceOnUse" id="clipPath94">
<path d="M318 93 L437 93 L437 449 L318 449 L318 93 Z"/>
</clipPath>
<clipPath clipPathUnits="userSpaceOnUse" id="clipPath95">
<path d="M424 93 L437 93 L437 110 L424 110 L424 93 Z"/>
</clipPath>
<clipPath clipPathUnits="userSpaceOnUse" id="clipPath96">
<path d="M535 78 L582 78 L582 296 L535 296 L535 78 Z"/>
</clipPath>
<clipPath clipPathUnits="userSpaceOnUse" id="clipPath97">
<path d="M535 78 L552 78 L552 91 L535 91 L535 78 Z"/>
</clipPath>
<clipPath clipPathUnits="userSpaceOnUse" id="clipPath98">
<path d="M535 61 L731 61 L731 74 L535 74 L535 61 Z"/>
</clipPath>
<clipPath clipPathUnits="userSpaceOnUse" id="clipPath99">
<path d="M714 61 L731 61 L731 74 L714 74 L714 61 Z"/>
</clipPath>
<clipPath clipPathUnits="userSpaceOnUse" id="clipPath100">
<path d="M895 191 L952 191 L952 285 L895 285 L895 191 Z"/>
</clipPath>
<clipPath clipPathUnits="userSpaceOnUse" id="clipPath101">
<path d="M895 202 L925 202 L925 222 L895 222 L895 202 Z"/>
</clipPath>
<clipPath clipPathUnits="userSpaceOnUse" id="clipPath102">
<path d="M929 202 L952 202 L952 220 L929 220 L929 202 Z"/>
</clipPath>
<clipPath clipPathUnits="userSpaceOnUse" id="clipPath103">
<path d="M922 191 L933 191 L933 202 L922 202 L922 191 Z"/>
</clipPath>
<clipPath clipPathUnits="userSpaceOnUse" id="clipPath104">
<path d="M210 93 L411 93 L411 348 L210 348 L210 93 Z"/>
</clipPath>
<clipPath clipPathUnits="userSpaceOnUse" id="clipPath105">
<path d="M398 93 L411 93 L411 110 L398 110 L398 93 Z"/>
</clipPath>
<clipPath clipPathUnits="userSpaceOnUse" id="clipPath106">
<path d="M662 93 L762 93 L762 306 L662 306 L662 93 Z"/>
</clipPath>
<clipPath clipPathUnits="userSpaceOnUse" id="clipPath107">
<path d="M706 104 L735 104 L735 124 L706 124 L706 104 Z"/>
</clipPath>
<clipPath clipPathUnits="userSpaceOnUse" id="clipPath108">
<path d="M739 104 L762 104 L762 122 L739 122 L739 104 Z"/>
</clipPath>
<clipPath clipPathUnits="userSpaceOnUse" id="clipPath109">
<path d="M732 93 L743 93 L743 104 L732 104 L732 93 Z"/>
</clipPath>
</defs>
<g fill="white" font-family="'Segoe UI'" stroke-linejoin="round" stroke="white" stroke-width="0" stroke-miterlimit="0">
<rect width="1078" x="0" height="600" y="-1" stroke="none"/>
<rect x="757" y="232" clip-path="url(#clipPath1)" width="227" height="11" stroke="none"/>
<rect x="757" y="232" clip-path="url(#clipPath1)" fill="rgb(255,255,219)" width="68" height="11" stroke="none"/>
</g>
<g stroke-linecap="butt" font-family="'Segoe UI'">
<rect x="757" y="232" clip-path="url(#clipPath1)" fill="none" width="68" height="11"/>
<rect x="757" y="243" clip-path="url(#clipPath2)" fill="rgb(255,255,219)" width="227" height="101" stroke="none"/>
<rect x="757" y="243" clip-path="url(#clipPath2)" fill="none" width="226" height="100"/>
<text x="824" font-size="11" y="257" clip-path="url(#clipPath3)" font-family="'Arial'" stroke="none" xml:space="preserve">&lt;&lt;Java Package&gt;&gt;</text>
<image transform="matrix(1,0,0,1,852,262)" width="16" xlink:show="embed" xlink:type="simple" clip-path="url(#clipPath4)" preserveAspectRatio="none" font-weight="bold" height="16" font-family="'Arial'" x="0" y="0" xlink:href="data:image/png;base64,iVBORw0KGgoAAAANSUhEUgAAABAAAAAQCAYAAAAf8/9hAAABHElEQVR42mNgoCUo&#13;&#10;tBH/T0gNI4yxv8nwP9OPPyiSl25/YtBT5UMR+8fBwuBYdx6ujwXGYPr6i0HKo5iB&#13;&#10;i4sZzH/56BUD97ezDFKubihin88sQDGQCW7yv/9ghSIaUgwcHKwMnLw8YHF0MZA6&#13;&#10;rAb8gbr+y4PXUM/BXYki9gfVlwgv/PnzD+xEsM1AhR+ev2K4ff8FgwGaGEgdRiCC&#13;&#10;QltJkoOBW9oSLgHSDAOqihJw9tenxxnuPf/B0H/kJSNKLKxLVv2vG1OJEmCrl2xl&#13;&#10;SCqIQxF7sGMWQ9Dc24wYYfD77z+MAAPZjC4GUocjEP8TGYj/sQfi378MGIEIczay&#13;&#10;GEgdVgOUtQQYLq2bhiL5FRjil9adRBFT1RKkbl4YeAAAdmGFwDri71wAAAAASUVO&#13;&#10;RK5CYII=" xlink:actuate="onLoad"/>
<text x="868" y="274" clip-path="url(#clipPath5)" font-family="'Arial'" stroke="none" font-weight="bold" xml:space="preserve">film</text>
<rect x="704" y="2" clip-path="url(#clipPath6)" fill="white" width="331" height="11" stroke="none"/>
<rect x="704" y="2" clip-path="url(#clipPath6)" fill="rgb(255,255,219)" width="99" height="11" stroke="none"/>
<rect x="704" y="2" clip-path="url(#clipPath6)" fill="none" width="99" height="11"/>
<rect x="704" y="13" clip-path="url(#clipPath7)" fill="rgb(255,255,219)" width="331" height="210" stroke="none"/>
<rect x="704" y="13" clip-path="url(#clipPath7)" fill="none" width="330" height="209"/>
<text x="823" font-size="11" y="27" clip-path="url(#clipPath8)" font-family="'Arial'" stroke="none" xml:space="preserve">&lt;&lt;Java Package&gt;&gt;</text>
<image transform="matrix(1,0,0,1,844,32)" width="16" xlink:show="embed" xlink:type="simple" clip-path="url(#clipPath9)" preserveAspectRatio="none" font-weight="bold" height="16" font-family="'Arial'" x="0" y="0" xlink:href="data:image/png;base64,iVBORw0KGgoAAAANSUhEUgAAABAAAAAQCAYAAAAf8/9hAAABHElEQVR42mNgoCUo&#13;&#10;tBH/T0gNI4yxv8nwP9OPPyiSl25/YtBT5UMR+8fBwuBYdx6ujwXGYPr6i0HKo5iB&#13;&#10;i4sZzH/56BUD97ezDFKubihin88sQDGQCW7yv/9ghSIaUgwcHKwMnLw8YHF0MZA6&#13;&#10;rAb8gbr+y4PXUM/BXYki9gfVlwgv/PnzD+xEsM1AhR+ev2K4ff8FgwGaGEgdRiCC&#13;&#10;QltJkoOBW9oSLgHSDAOqihJw9tenxxnuPf/B0H/kJSNKLKxLVv2vG1OJEmCrl2xl&#13;&#10;SCqIQxF7sGMWQ9Dc24wYYfD77z+MAAPZjC4GUocjEP8TGYj/sQfi378MGIEIczay&#13;&#10;GEgdVgOUtQQYLq2bhiL5FRjil9adRBFT1RKkbl4YeAAAdmGFwDri71wAAAAASUVO&#13;&#10;RK5CYII=" xlink:actuate="onLoad"/>
<text x="860" y="44" clip-path="url(#clipPath10)" font-family="'Arial'" stroke="none" font-weight="bold" xml:space="preserve">image</text>
<rect x="745" y="400" clip-path="url(#clipPath11)" fill="white" width="265" height="11" stroke="none"/>
<rect x="745" y="400" clip-path="url(#clipPath11)" fill="rgb(255,255,219)" width="80" height="11" stroke="none"/>
<rect x="745" y="400" clip-path="url(#clipPath11)" fill="none" width="80" height="11"/>
<rect x="745" y="411" clip-path="url(#clipPath12)" fill="rgb(255,255,219)" width="265" height="112" stroke="none"/>
<rect x="745" y="411" clip-path="url(#clipPath12)" fill="none" width="264" height="111"/>
<text x="831" font-size="11" y="425" clip-path="url(#clipPath13)" font-family="'Arial'" stroke="none" xml:space="preserve">&lt;&lt;Java Package&gt;&gt;</text>
<image transform="matrix(1,0,0,1,841,430)" width="16" xlink:show="embed" xlink:type="simple" clip-path="url(#clipPath14)" preserveAspectRatio="none" font-weight="bold" height="16" font-family="'Arial'" x="0" y="0" xlink:href="data:image/png;base64,iVBORw0KGgoAAAANSUhEUgAAABAAAAAQCAYAAAAf8/9hAAABHElEQVR42mNgoCUo&#13;&#10;tBH/T0gNI4yxv8nwP9OPPyiSl25/YtBT5UMR+8fBwuBYdx6ujwXGYPr6i0HKo5iB&#13;&#10;i4sZzH/56BUD97ezDFKubihin88sQDGQCW7yv/9ghSIaUgwcHKwMnLw8YHF0MZA6&#13;&#10;rAb8gbr+y4PXUM/BXYki9gfVlwgv/PnzD+xEsM1AhR+ev2K4ff8FgwGaGEgdRiCC&#13;&#10;QltJkoOBW9oSLgHSDAOqihJw9tenxxnuPf/B0H/kJSNKLKxLVv2vG1OJEmCrl2xl&#13;&#10;SCqIQxF7sGMWQ9Dc24wYYfD77z+MAAPZjC4GUocjEP8TGYj/sQfi378MGIEIczay&#13;&#10;GEgdVgOUtQQYLq2bhiL5FRjil9adRBFT1RKkbl4YeAAAdmGFwDri71wAAAAASUVO&#13;&#10;RK5CYII=" xlink:actuate="onLoad"/>
<text x="857" y="442" clip-path="url(#clipPath15)" font-family="'Arial'" stroke="none" font-weight="bold" xml:space="preserve">exception</text>
<rect x="22" y="9" clip-path="url(#clipPath16)" fill="white" width="676" height="11" stroke="none"/>
<rect x="22" y="9" clip-path="url(#clipPath16)" fill="rgb(255,255,219)" width="203" height="11" stroke="none"/>
<rect x="22" y="9" clip-path="url(#clipPath16)" fill="none" width="203" height="11"/>
<rect x="22" y="20" clip-path="url(#clipPath17)" fill="rgb(255,255,219)" width="676" height="509" stroke="none"/>
<rect x="22" y="20" clip-path="url(#clipPath17)" fill="none" width="675" height="508"/>
<text x="313" font-size="11" y="34" clip-path="url(#clipPath18)" font-family="'Arial'" stroke="none" xml:space="preserve">&lt;&lt;Java Package&gt;&gt;</text>
<image transform="matrix(1,0,0,1,329,39)" width="16" xlink:show="embed" xlink:type="simple" clip-path="url(#clipPath19)" preserveAspectRatio="none" font-weight="bold" height="16" font-family="'Arial'" x="0" y="0" xlink:href="data:image/png;base64,iVBORw0KGgoAAAANSUhEUgAAABAAAAAQCAYAAAAf8/9hAAABHElEQVR42mNgoCUo&#13;&#10;tBH/T0gNI4yxv8nwP9OPPyiSl25/YtBT5UMR+8fBwuBYdx6ujwXGYPr6i0HKo5iB&#13;&#10;i4sZzH/56BUD97ezDFKubihin88sQDGQCW7yv/9ghSIaUgwcHKwMnLw8YHF0MZA6&#13;&#10;rAb8gbr+y4PXUM/BXYki9gfVlwgv/PnzD+xEsM1AhR+ev2K4ff8FgwGaGEgdRiCC&#13;&#10;QltJkoOBW9oSLgHSDAOqihJw9tenxxnuPf/B0H/kJSNKLKxLVv2vG1OJEmCrl2xl&#13;&#10;SCqIQxF7sGMWQ9Dc24wYYfD77z+MAAPZjC4GUocjEP8TGYj/sQfi378MGIEIczay&#13;&#10;GEgdVgOUtQQYLq2bhiL5FRjil9adRBFT1RKkbl4YeAAAdmGFwDri71wAAAAASUVO&#13;&#10;RK5CYII=" xlink:actuate="onLoad"/>
<text x="345" y="51" clip-path="url(#clipPath20)" font-family="'Arial'" stroke="none" font-weight="bold" xml:space="preserve">element</text>
<rect x="402" y="41" clip-path="url(#clipPath21)" fill="rgb(255,255,200)" width="134" height="53" stroke="none"/>
<rect x="402" y="41" clip-path="url(#clipPath21)" fill="none" width="133" height="52"/>
<text x="429" font-size="11" y="55" clip-path="url(#clipPath22)" font-family="'Arial'" stroke="none" xml:space="preserve">&lt;&lt;Java Class&gt;&gt;</text>
<image transform="matrix(1,0,0,1,406,60)" width="16" xlink:show="embed" xlink:type="simple" clip-path="url(#clipPath23)" preserveAspectRatio="none" font-weight="bold" height="16" font-family="'Arial'" font-style="italic" x="0" y="0" xlink:href="data:image/png;base64,iVBORw0KGgoAAAANSUhEUgAAABAAAAAQCAYAAAAf8/9hAAACQUlEQVR42s1SS2gT&#13;&#10;URQ9k0ySsf9MIiYxUbFqB2naRTHowtLU1EX9pH4WUqiiWF2IELdaKS0WdOO3G4sL&#13;&#10;KSgoREVpFCm4UYut0SIo+GksWBtt6qRN03yaScaZV2ZoWl2488Bwefe9c985Zx7w&#13;&#10;DxAlmE9vlouo9KjFh14ND4jdb+6Cj0elbwrGghKYSkzoPXwRbc+u4Xr/bRz3NOOc&#13;&#10;+yQoCZqF5M5HV0Vf4AIK9TlU2i2o5Tg4V9nIWoZMjnQNkKqAXkh+EOyDt8aFakcV&#13;&#10;2CIzaA0NIScgFPnyV1uUIlu+uY6rQEOlB+71niUHFfkKFBtEwZWhO+BsK7DBWq6S&#13;&#10;+z8+wYfx91hrXoedTq8qX8HyM1vIAJLBZJzHdCIppWwgmyOREG69vI+3o5/gfx0g&#13;&#10;PXuZhdTmniN5a2KhpnOXmBXSOFS3Hz53K56HBnHiZhuUvyWFDR1NQ6ulwNA6zKYF&#13;&#10;BNv7KDVEU7ERs6lp/Jj6RQirWTuMRcUQc/PpH60/iGV6HfzBp4jORMAY9KoVYsFh&#13;&#10;skIr3RLmvyGWmoGjzIazXh+cazaiydWIFtceNHC10CGLQgNDssobcKyqCeM8j0Qm&#13;&#10;ifOPL+GzlMG2iq3oPtCFU/WtCMd+4saLXmSyc3g3GkILtx1LXmLHw8uifzAAC2uE&#13;&#10;jWVhZ1dKshkk51IY478jmc7g60QEO6rdaN/to/74lOUh94YCKLfaQdOSOHH+hCDk&#13;&#10;MBIew95NjXlk1YICebNnXwc0GgYT0TgmYwlSC/SlkPuLyf8HfgPrUtzotmCI1wAA&#13;&#10;AABJRU5ErkJggg==" xlink:actuate="onLoad"/>
<text x="422" y="72" clip-path="url(#clipPath24)" font-family="'Arial'" font-style="italic" stroke="none" font-weight="bold" xml:space="preserve">ElementCoordonné</text>
<text x="451" font-size="9" y="87" clip-path="url(#clipPath25)" font-family="'Arial'" stroke="none" xml:space="preserve">element</text>
<rect x="447" y="446" clip-path="url(#clipPath26)" fill="rgb(255,255,200)" width="87" height="53" stroke="none"/>
<rect x="447" y="446" clip-path="url(#clipPath26)" fill="none" width="86" height="52"/>
<text x="451" font-size="11" y="460" clip-path="url(#clipPath27)" font-family="'Arial'" stroke="none" xml:space="preserve">&lt;&lt;Java Class&gt;&gt;</text>
<image transform="matrix(1,0,0,1,467,465)" width="16" xlink:show="embed" xlink:type="simple" clip-path="url(#clipPath28)" preserveAspectRatio="none" font-weight="bold" height="16" font-family="'Arial'" x="0" y="0" xlink:href="data:image/png;base64,iVBORw0KGgoAAAANSUhEUgAAABAAAAAQCAYAAAAf8/9hAAACUElEQVR42s2S3UvT&#13;&#10;URjHP7/tNzfn67YgtU0FwUTLmZLRhYGWEfai9kY3elVdRdgfUGkQdGeEFxF2UdhN&#13;&#10;YNqLGhIShElJKtlFVs5B2szNTd3cm3O/fvtJg5l0000PnPOc8z3n+ZznPOfAP5qw&#13;&#10;WXg3MSJ1jD3G7fPIbQmDPh1TuolL5WfZV7Zf+CvgxvM70sDkENbcPDL0yXF92R9g&#13;&#10;1Gajfk8t145fFrYExIJ7P/RRX1GJ1VKKMXUbokokEo1gc37D7pqj680QzVWnEyDq&#13;&#10;eNrDXRwq2UV1cTVHio+RZ8zHYshVfJm5nHXCpOgl+iZG6G1/0Np5935bHOCvSGvN&#13;&#10;ytRSnl9Co/WMQn419ZIXk09x+pwUbi9CVItMzX+WfZSxBTvjPcMKQIx1Lp+bVC1I&#13;&#10;klYJnnbaePS2RxmP278w+Ok14UhYmQdDYRb9jngNFMCi18OCJ8RyMKSIDq+LsZkZ&#13;&#10;GShtFEoQ0IgiarWATtSwGookAkxpBlaDy8wvLSpintGMITUNKRpV5udrmklO0tD9&#13;&#10;YRCP14lOmxQHqGKdxZSNWj7F4f7OStCLJTOHq/Ut7M4vpqGyjqbKRmqLDqCRS5mi&#13;&#10;1VGYXZAIuFjawA+3G/9agFsD7XyVa3BwZxUd525ypeYCjpWfdA4/ZG09zEe7jaai&#13;&#10;w3/+g7Znt6Xu9/1kGQ3kGI2YjTvktHUEwkFm3XMEQmvMLDg5aq3m+okWYcufGIM8&#13;&#10;Ge2nINuMKMrJSRs7IpEo045ZTu6tSwiOX+G3xRbvnWpDpdLJr+LDteJXvD4pg5i+&#13;&#10;Ofj/sF95FuJLLC5pIAAAAABJRU5ErkJggg==" xlink:actuate="onLoad"/>
<text x="483" y="477" clip-path="url(#clipPath29)" font-family="'Arial'" stroke="none" font-weight="bold" xml:space="preserve">Texte</text>
<text x="473" font-size="9" y="492" clip-path="url(#clipPath30)" font-family="'Arial'" stroke="none" xml:space="preserve">element</text>
<rect x="174" y="346" clip-path="url(#clipPath31)" fill="rgb(255,255,200)" width="87" height="53" stroke="none"/>
<rect x="174" y="346" clip-path="url(#clipPath31)" fill="none" width="86" height="52"/>
<text x="178" font-size="11" y="360" clip-path="url(#clipPath32)" font-family="'Arial'" stroke="none" xml:space="preserve">&lt;&lt;Java Class&gt;&gt;</text>
<image transform="matrix(1,0,0,1,181,365)" width="16" xlink:show="embed" xlink:type="simple" clip-path="url(#clipPath33)" preserveAspectRatio="none" font-weight="bold" height="16" font-family="'Arial'" x="0" y="0" xlink:href="data:image/png;base64,iVBORw0KGgoAAAANSUhEUgAAABAAAAAQCAYAAAAf8/9hAAACUElEQVR42s2S3UvT&#13;&#10;URjHP7/tNzfn67YgtU0FwUTLmZLRhYGWEfai9kY3elVdRdgfUGkQdGeEFxF2UdhN&#13;&#10;YNqLGhIShElJKtlFVs5B2szNTd3cm3O/fvtJg5l0000PnPOc8z3n+ZznPOfAP5qw&#13;&#10;WXg3MSJ1jD3G7fPIbQmDPh1TuolL5WfZV7Zf+CvgxvM70sDkENbcPDL0yXF92R9g&#13;&#10;1Gajfk8t145fFrYExIJ7P/RRX1GJ1VKKMXUbokokEo1gc37D7pqj680QzVWnEyDq&#13;&#10;eNrDXRwq2UV1cTVHio+RZ8zHYshVfJm5nHXCpOgl+iZG6G1/0Np5935bHOCvSGvN&#13;&#10;ytRSnl9Co/WMQn419ZIXk09x+pwUbi9CVItMzX+WfZSxBTvjPcMKQIx1Lp+bVC1I&#13;&#10;klYJnnbaePS2RxmP278w+Ok14UhYmQdDYRb9jngNFMCi18OCJ8RyMKSIDq+LsZkZ&#13;&#10;GShtFEoQ0IgiarWATtSwGookAkxpBlaDy8wvLSpintGMITUNKRpV5udrmklO0tD9&#13;&#10;YRCP14lOmxQHqGKdxZSNWj7F4f7OStCLJTOHq/Ut7M4vpqGyjqbKRmqLDqCRS5mi&#13;&#10;1VGYXZAIuFjawA+3G/9agFsD7XyVa3BwZxUd525ypeYCjpWfdA4/ZG09zEe7jaai&#13;&#10;w3/+g7Znt6Xu9/1kGQ3kGI2YjTvktHUEwkFm3XMEQmvMLDg5aq3m+okWYcufGIM8&#13;&#10;Ge2nINuMKMrJSRs7IpEo045ZTu6tSwiOX+G3xRbvnWpDpdLJr+LDteJXvD4pg5i+&#13;&#10;Ofj/sF95FuJLLC5pIAAAAABJRU5ErkJggg==" xlink:actuate="onLoad"/>
<text x="197" y="377" clip-path="url(#clipPath34)" font-family="'Arial'" stroke="none" font-weight="bold" xml:space="preserve">Caractère</text>
<text x="200" font-size="9" y="392" clip-path="url(#clipPath35)" font-family="'Arial'" stroke="none" xml:space="preserve">element</text>
<rect x="66" y="330" clip-path="url(#clipPath36)" fill="rgb(255,255,200)" width="87" height="53" stroke="none"/>
<rect x="66" y="330" clip-path="url(#clipPath36)" fill="none" width="86" height="52"/>
<text x="70" font-size="11" y="344" clip-path="url(#clipPath37)" font-family="'Arial'" stroke="none" xml:space="preserve">&lt;&lt;Java Class&gt;&gt;</text>
<image transform="matrix(1,0,0,1,86,349)" width="16" xlink:show="embed" xlink:type="simple" clip-path="url(#clipPath28)" preserveAspectRatio="none" font-weight="bold" height="16" font-family="'Arial'" x="0" y="0" xlink:href="data:image/png;base64,iVBORw0KGgoAAAANSUhEUgAAABAAAAAQCAYAAAAf8/9hAAACUElEQVR42s2S3UvT&#13;&#10;URjHP7/tNzfn67YgtU0FwUTLmZLRhYGWEfai9kY3elVdRdgfUGkQdGeEFxF2UdhN&#13;&#10;YNqLGhIShElJKtlFVs5B2szNTd3cm3O/fvtJg5l0000PnPOc8z3n+ZznPOfAP5qw&#13;&#10;WXg3MSJ1jD3G7fPIbQmDPh1TuolL5WfZV7Zf+CvgxvM70sDkENbcPDL0yXF92R9g&#13;&#10;1Gajfk8t145fFrYExIJ7P/RRX1GJ1VKKMXUbokokEo1gc37D7pqj680QzVWnEyDq&#13;&#10;eNrDXRwq2UV1cTVHio+RZ8zHYshVfJm5nHXCpOgl+iZG6G1/0Np5935bHOCvSGvN&#13;&#10;ytRSnl9Co/WMQn419ZIXk09x+pwUbi9CVItMzX+WfZSxBTvjPcMKQIx1Lp+bVC1I&#13;&#10;klYJnnbaePS2RxmP278w+Ok14UhYmQdDYRb9jngNFMCi18OCJ8RyMKSIDq+LsZkZ&#13;&#10;GShtFEoQ0IgiarWATtSwGookAkxpBlaDy8wvLSpintGMITUNKRpV5udrmklO0tD9&#13;&#10;YRCP14lOmxQHqGKdxZSNWj7F4f7OStCLJTOHq/Ut7M4vpqGyjqbKRmqLDqCRS5mi&#13;&#10;1VGYXZAIuFjawA+3G/9agFsD7XyVa3BwZxUd525ypeYCjpWfdA4/ZG09zEe7jaai&#13;&#10;w3/+g7Znt6Xu9/1kGQ3kGI2YjTvktHUEwkFm3XMEQmvMLDg5aq3m+okWYcufGIM8&#13;&#10;Ge2nINuMKMrJSRs7IpEo045ZTu6tSwiOX+G3xRbvnWpDpdLJr+LDteJXvD4pg5i+&#13;&#10;Ofj/sF95FuJLLC5pIAAAAABJRU5ErkJggg==" xlink:actuate="onLoad"/>
<text x="102" y="361" clip-path="url(#clipPath38)" font-family="'Arial'" stroke="none" font-weight="bold" xml:space="preserve">Ligne</text>
<text x="92" font-size="9" y="376" clip-path="url(#clipPath39)" font-family="'Arial'" stroke="none" xml:space="preserve">element</text>
<rect x="883" y="283" clip-path="url(#clipPath40)" fill="rgb(255,255,200)" width="87" height="53" stroke="none"/>
<rect x="883" y="283" clip-path="url(#clipPath40)" fill="none" width="86" height="52"/>
<text x="887" font-size="11" y="297" clip-path="url(#clipPath41)" font-family="'Arial'" stroke="none" xml:space="preserve">&lt;&lt;Java Class&gt;&gt;</text>
<image transform="matrix(1,0,0,1,907,302)" width="16" xlink:show="embed" xlink:type="simple" clip-path="url(#clipPath42)" preserveAspectRatio="none" font-weight="bold" height="16" font-family="'Arial'" x="0" y="0" xlink:href="data:image/png;base64,iVBORw0KGgoAAAANSUhEUgAAABAAAAAQCAYAAAAf8/9hAAACUElEQVR42s2S3UvT&#13;&#10;URjHP7/tNzfn67YgtU0FwUTLmZLRhYGWEfai9kY3elVdRdgfUGkQdGeEFxF2UdhN&#13;&#10;YNqLGhIShElJKtlFVs5B2szNTd3cm3O/fvtJg5l0000PnPOc8z3n+ZznPOfAP5qw&#13;&#10;WXg3MSJ1jD3G7fPIbQmDPh1TuolL5WfZV7Zf+CvgxvM70sDkENbcPDL0yXF92R9g&#13;&#10;1Gajfk8t145fFrYExIJ7P/RRX1GJ1VKKMXUbokokEo1gc37D7pqj680QzVWnEyDq&#13;&#10;eNrDXRwq2UV1cTVHio+RZ8zHYshVfJm5nHXCpOgl+iZG6G1/0Np5935bHOCvSGvN&#13;&#10;ytRSnl9Co/WMQn419ZIXk09x+pwUbi9CVItMzX+WfZSxBTvjPcMKQIx1Lp+bVC1I&#13;&#10;klYJnnbaePS2RxmP278w+Ok14UhYmQdDYRb9jngNFMCi18OCJ8RyMKSIDq+LsZkZ&#13;&#10;GShtFEoQ0IgiarWATtSwGookAkxpBlaDy8wvLSpintGMITUNKRpV5udrmklO0tD9&#13;&#10;YRCP14lOmxQHqGKdxZSNWj7F4f7OStCLJTOHq/Ut7M4vpqGyjqbKRmqLDqCRS5mi&#13;&#10;1VGYXZAIuFjawA+3G/9agFsD7XyVa3BwZxUd525ypeYCjpWfdA4/ZG09zEe7jaai&#13;&#10;w3/+g7Znt6Xu9/1kGQ3kGI2YjTvktHUEwkFm3XMEQmvMLDg5aq3m+okWYcufGIM8&#13;&#10;Ge2nINuMKMrJSRs7IpEo045ZTu6tSwiOX+G3xRbvnWpDpdLJr+LDteJXvD4pg5i+&#13;&#10;Ofj/sF95FuJLLC5pIAAAAABJRU5ErkJggg==" xlink:actuate="onLoad"/>
<text x="923" y="314" clip-path="url(#clipPath43)" font-family="'Arial'" stroke="none" font-weight="bold" xml:space="preserve">Film</text>
<text x="917" font-size="9" y="329" clip-path="url(#clipPath44)" font-family="'Arial'" stroke="none" xml:space="preserve">film</text>
<rect x="50" y="458" clip-path="url(#clipPath45)" fill="rgb(255,255,200)" width="119" height="53" stroke="none"/>
<rect x="50" y="458" clip-path="url(#clipPath45)" fill="none" width="118" height="52"/>
<text x="54" font-size="11" y="472" clip-path="url(#clipPath46)" font-family="'Arial'" stroke="none" xml:space="preserve">&lt;&lt;Java Enumeration&gt;&gt;</text>
<image transform="matrix(1,0,0,1,76,477)" width="16" xlink:show="embed" xlink:type="simple" clip-path="url(#clipPath47)" preserveAspectRatio="none" font-weight="bold" height="16" font-family="'Arial'" x="0" y="0" xlink:href="data:image/png;base64,iVBORw0KGgoAAAANSUhEUgAAABAAAAAQCAYAAAAf8/9hAAAB6ElEQVR42mNgoBAw&#13;&#10;ogs8vHzk/5HVvQzfPr5l+PHlPQM7Fz8Dt6Aog01oMYO8rg0jXgN2z635f+PYRgZx&#13;&#10;JT2G75/ewcU5+YQYnt8+x6BlG8zgmtzCiNUAkOarB1czaNoEMIjKaWI49c7Z3QyP&#13;&#10;rhxl0HeJQTGEGebso0BnKxu7MPz7+4fBLrKcQVJZHwX//f2T4fPb5wyPrx1nmLl4&#13;&#10;Q8OE6fMaQXpZQMShFZ0MwjJqDJ/ePEWx9ebJbQzvn98Ds1/ev8LAysHFICqvxXBi&#13;&#10;wxS4GrAB3z6+YWBl5wIGGB+KAc9unWV4fucCQjEbOzBgPzJ8/voB1YAfXz6AQ/3/&#13;&#10;/38oBjjG1sLZmyflMDy4eJCBiYWV4c+vH6gGcPAIMPz68Q0j4M7umM/w6sFVMPvL&#13;&#10;+5cMjMwsQEv+M3DyCqIaICAuz/D60Q0GLj5hFAO+vHvB8OLuRTifm18ETAtKKALJ&#13;&#10;42A2E4iwCMgBe4ORiQmMYcA+qpIhsXs3GBt7JjEws7AxvHt2l8HIIwEzHeyaU/X/&#13;&#10;yoFVDFxAW7RsAjG88+LeJYYXwADVsPZncEtpY8SaEsGGABMTyEvMzKxAkf9gJX//&#13;&#10;/mb48PIhg459KIpmuBdgACQZXDafgYmJmeHLh5fgmAHRbBzcDCBxdM2DAwAA5f26&#13;&#10;u17SzQEAAAAASUVORK5CYII=" xlink:actuate="onLoad"/>
<text x="92" y="489" clip-path="url(#clipPath48)" font-family="'Arial'" stroke="none" font-weight="bold" xml:space="preserve">Direction</text>
<text x="92" font-size="9" y="504" clip-path="url(#clipPath49)" font-family="'Arial'" stroke="none" xml:space="preserve">element</text>
<rect x="257" y="447" clip-path="url(#clipPath50)" fill="rgb(255,255,200)" width="107" height="53" stroke="none"/>
<rect x="257" y="447" clip-path="url(#clipPath50)" fill="none" width="106" height="52"/>
<text x="271" font-size="11" y="461" clip-path="url(#clipPath51)" font-family="'Arial'" stroke="none" xml:space="preserve">&lt;&lt;Java Class&gt;&gt;</text>
<image transform="matrix(1,0,0,1,261,466)" width="16" xlink:show="embed" xlink:type="simple" clip-path="url(#clipPath52)" preserveAspectRatio="none" font-weight="bold" height="16" font-family="'Arial'" x="0" y="0" xlink:href="data:image/png;base64,iVBORw0KGgoAAAANSUhEUgAAABAAAAAQCAYAAAAf8/9hAAACUElEQVR42s2S3UvT&#13;&#10;URjHP7/tNzfn67YgtU0FwUTLmZLRhYGWEfai9kY3elVdRdgfUGkQdGeEFxF2UdhN&#13;&#10;YNqLGhIShElJKtlFVs5B2szNTd3cm3O/fvtJg5l0000PnPOc8z3n+ZznPOfAP5qw&#13;&#10;WXg3MSJ1jD3G7fPIbQmDPh1TuolL5WfZV7Zf+CvgxvM70sDkENbcPDL0yXF92R9g&#13;&#10;1Gajfk8t145fFrYExIJ7P/RRX1GJ1VKKMXUbokokEo1gc37D7pqj680QzVWnEyDq&#13;&#10;eNrDXRwq2UV1cTVHio+RZ8zHYshVfJm5nHXCpOgl+iZG6G1/0Np5935bHOCvSGvN&#13;&#10;ytRSnl9Co/WMQn419ZIXk09x+pwUbi9CVItMzX+WfZSxBTvjPcMKQIx1Lp+bVC1I&#13;&#10;klYJnnbaePS2RxmP278w+Ok14UhYmQdDYRb9jngNFMCi18OCJ8RyMKSIDq+LsZkZ&#13;&#10;GShtFEoQ0IgiarWATtSwGookAkxpBlaDy8wvLSpintGMITUNKRpV5udrmklO0tD9&#13;&#10;YRCP14lOmxQHqGKdxZSNWj7F4f7OStCLJTOHq/Ut7M4vpqGyjqbKRmqLDqCRS5mi&#13;&#10;1VGYXZAIuFjawA+3G/9agFsD7XyVa3BwZxUd525ypeYCjpWfdA4/ZG09zEe7jaai&#13;&#10;w3/+g7Znt6Xu9/1kGQ3kGI2YjTvktHUEwkFm3XMEQmvMLDg5aq3m+okWYcufGIM8&#13;&#10;Ge2nINuMKMrJSRs7IpEo045ZTu6tSwiOX+G3xRbvnWpDpdLJr+LDteJXvD4pg5i+&#13;&#10;Ofj/sF95FuJLLC5pIAAAAABJRU5ErkJggg==" xlink:actuate="onLoad"/>
<text x="277" y="478" clip-path="url(#clipPath53)" font-family="'Arial'" stroke="none" font-weight="bold" xml:space="preserve">ExtraitDeTexte</text>
<text x="293" font-size="9" y="493" clip-path="url(#clipPath54)" font-family="'Arial'" stroke="none" xml:space="preserve">element</text>
<rect x="552" y="294" clip-path="url(#clipPath55)" fill="rgb(255,255,200)" width="111" height="53" stroke="none"/>
<rect x="552" y="294" clip-path="url(#clipPath55)" fill="none" width="110" height="52"/>
<text x="568" font-size="11" y="308" clip-path="url(#clipPath56)" font-family="'Arial'" stroke="none" xml:space="preserve">&lt;&lt;Java Class&gt;&gt;</text>
<image transform="matrix(1,0,0,1,556,313)" width="16" xlink:show="embed" xlink:type="simple" clip-path="url(#clipPath57)" preserveAspectRatio="none" font-weight="bold" height="16" font-family="'Arial'" x="0" y="0" xlink:href="data:image/png;base64,iVBORw0KGgoAAAANSUhEUgAAABAAAAAQCAYAAAAf8/9hAAACUElEQVR42s2S3UvT&#13;&#10;URjHP7/tNzfn67YgtU0FwUTLmZLRhYGWEfai9kY3elVdRdgfUGkQdGeEFxF2UdhN&#13;&#10;YNqLGhIShElJKtlFVs5B2szNTd3cm3O/fvtJg5l0000PnPOc8z3n+ZznPOfAP5qw&#13;&#10;WXg3MSJ1jD3G7fPIbQmDPh1TuolL5WfZV7Zf+CvgxvM70sDkENbcPDL0yXF92R9g&#13;&#10;1Gajfk8t145fFrYExIJ7P/RRX1GJ1VKKMXUbokokEo1gc37D7pqj680QzVWnEyDq&#13;&#10;eNrDXRwq2UV1cTVHio+RZ8zHYshVfJm5nHXCpOgl+iZG6G1/0Np5935bHOCvSGvN&#13;&#10;ytRSnl9Co/WMQn419ZIXk09x+pwUbi9CVItMzX+WfZSxBTvjPcMKQIx1Lp+bVC1I&#13;&#10;klYJnnbaePS2RxmP278w+Ok14UhYmQdDYRb9jngNFMCi18OCJ8RyMKSIDq+LsZkZ&#13;&#10;GShtFEoQ0IgiarWATtSwGookAkxpBlaDy8wvLSpintGMITUNKRpV5udrmklO0tD9&#13;&#10;YRCP14lOmxQHqGKdxZSNWj7F4f7OStCLJTOHq/Ut7M4vpqGyjqbKRmqLDqCRS5mi&#13;&#10;1VGYXZAIuFjawA+3G/9agFsD7XyVa3BwZxUd525ypeYCjpWfdA4/ZG09zEe7jaai&#13;&#10;w3/+g7Znt6Xu9/1kGQ3kGI2YjTvktHUEwkFm3XMEQmvMLDg5aq3m+okWYcufGIM8&#13;&#10;Ge2nINuMKMrJSRs7IpEo045ZTu6tSwiOX+G3xRbvnWpDpdLJr+LDteJXvD4pg5i+&#13;&#10;Ofj/sF95FuJLLC5pIAAAAABJRU5ErkJggg==" xlink:actuate="onLoad"/>
<text x="572" y="325" clip-path="url(#clipPath58)" font-family="'Arial'" stroke="none" font-weight="bold" xml:space="preserve">GroupeElement</text>
<text x="590" font-size="9" y="340" clip-path="url(#clipPath59)" font-family="'Arial'" stroke="none" xml:space="preserve">element</text>
<rect x="52" y="55" clip-path="url(#clipPath60)" fill="rgb(255,255,200)" width="87" height="53" stroke="none"/>
<rect x="52" y="55" clip-path="url(#clipPath60)" fill="none" width="86" height="52"/>
<text x="56" font-size="11" y="69" clip-path="url(#clipPath61)" font-family="'Arial'" stroke="none" xml:space="preserve">&lt;&lt;Java Class&gt;&gt;</text>
<image transform="matrix(1,0,0,1,70,74)" width="16" xlink:show="embed" xlink:type="simple" clip-path="url(#clipPath62)" preserveAspectRatio="none" font-weight="bold" height="16" font-family="'Arial'" x="0" y="0" xlink:href="data:image/png;base64,iVBORw0KGgoAAAANSUhEUgAAABAAAAAQCAYAAAAf8/9hAAACUElEQVR42s2S3UvT&#13;&#10;URjHP7/tNzfn67YgtU0FwUTLmZLRhYGWEfai9kY3elVdRdgfUGkQdGeEFxF2UdhN&#13;&#10;YNqLGhIShElJKtlFVs5B2szNTd3cm3O/fvtJg5l0000PnPOc8z3n+ZznPOfAP5qw&#13;&#10;WXg3MSJ1jD3G7fPIbQmDPh1TuolL5WfZV7Zf+CvgxvM70sDkENbcPDL0yXF92R9g&#13;&#10;1Gajfk8t145fFrYExIJ7P/RRX1GJ1VKKMXUbokokEo1gc37D7pqj680QzVWnEyDq&#13;&#10;eNrDXRwq2UV1cTVHio+RZ8zHYshVfJm5nHXCpOgl+iZG6G1/0Np5935bHOCvSGvN&#13;&#10;ytRSnl9Co/WMQn419ZIXk09x+pwUbi9CVItMzX+WfZSxBTvjPcMKQIx1Lp+bVC1I&#13;&#10;klYJnnbaePS2RxmP278w+Ok14UhYmQdDYRb9jngNFMCi18OCJ8RyMKSIDq+LsZkZ&#13;&#10;GShtFEoQ0IgiarWATtSwGookAkxpBlaDy8wvLSpintGMITUNKRpV5udrmklO0tD9&#13;&#10;YRCP14lOmxQHqGKdxZSNWj7F4f7OStCLJTOHq/Ut7M4vpqGyjqbKRmqLDqCRS5mi&#13;&#10;1VGYXZAIuFjawA+3G/9agFsD7XyVa3BwZxUd525ypeYCjpWfdA4/ZG09zEe7jaai&#13;&#10;w3/+g7Znt6Xu9/1kGQ3kGI2YjTvktHUEwkFm3XMEQmvMLDg5aq3m+okWYcufGIM8&#13;&#10;Ge2nINuMKMrJSRs7IpEo045ZTu6tSwiOX+G3xRbvnWpDpdLJr+LDteJXvD4pg5i+&#13;&#10;Ofj/sF95FuJLLC5pIAAAAABJRU5ErkJggg==" xlink:actuate="onLoad"/>
<text x="86" y="86" clip-path="url(#clipPath63)" font-family="'Arial'" stroke="none" font-weight="bold" xml:space="preserve">Cadre</text>
<text x="78" font-size="9" y="101" clip-path="url(#clipPath64)" font-family="'Arial'" stroke="none" xml:space="preserve">element</text>
<rect x="729" y="41" clip-path="url(#clipPath65)" fill="rgb(255,255,200)" width="103" height="53" stroke="none"/>
<rect x="729" y="41" clip-path="url(#clipPath65)" fill="none" width="102" height="52"/>
<text x="733" font-size="11" y="55" clip-path="url(#clipPath66)" font-family="'Arial'" stroke="none" xml:space="preserve">&lt;&lt;Java Interface&gt;&gt;</text>
<image transform="matrix(1,0,0,1,749,60)" width="16" xlink:show="embed" xlink:type="simple" clip-path="url(#clipPath19)" preserveAspectRatio="none" font-weight="bold" height="16" font-family="'Arial'" x="0" y="0" xlink:href="data:image/png;base64,iVBORw0KGgoAAAANSUhEUgAAABAAAAAQCAYAAAAf8/9hAAACCElEQVR42s1STWgT&#13;&#10;URD+9uclMdqaLiWJ7dYfAtalahUShCpiQPQgKIIHBUE8eCr07q09CR4DPRSRUnrt&#13;&#10;weLBlqJVkYAk4EGxRg1oCPYnIYlrutlus7u+feqTtcWLFwfe7M68mW/mfXzAP5rw&#13;&#10;ZyKfLbu55yV8eFeB47gQaMVBLYrU6b1IDqnCXwGmxvPuq5dldHSGoHSHeb5WNfBN&#13;&#10;N3H8hIobw0lhWwCv+cViEdrhOGJ7OrFjF+FFreYmVpd1LL1Zwal0wgciee7jUtWd&#13;&#10;nsjRVWPo2xfBtVvHoB2J8kOICIOCECIhly1h5sHEaGb87pjXK3puYfY91L4ILMum&#13;&#10;b69iMpPn07OPP2Nm+jXLmy0bBxIKns4V+b3MNihUYJibCMgMD9VVnfok+282rZ8x&#13;&#10;0HYc9v1aN/0A9boBa2ODMi6gbds+ltebLaytNX4USxJs20EwFOT3bGRXVxhyIMAo&#13;&#10;9UC885tmfyxKAhRlpx9AOxoHoesTIiMQlCiYyAskUWRxMCRDIgJCdPpgqtf/hHOX&#13;&#10;+jH/8C161N2I9XTg9p2zvODi1QF0R8N4tlBEZcVAuVTDUHr/Vh1MZnLuk7kCetUI&#13;&#10;lGh4i2RLn2owjTZOnkng5khK2FaJHsjifIEJCXB9evOElD7f72vmQvpls4/ujd2f&#13;&#10;yoyu6xaWv+hoNFoQKQeHBuK4fH0QF65oAv47+w4bFrCXFbJuGQAAAABJRU5ErkJg&#13;&#10;gg==" xlink:actuate="onLoad"/>
<text x="765" y="72" clip-path="url(#clipPath67)" font-family="'Arial'" stroke="none" font-weight="bold" xml:space="preserve">Element</text>
<text x="767" font-size="9" y="87" clip-path="url(#clipPath68)" font-family="'Arial'" stroke="none" xml:space="preserve">image</text>
<rect x="884" y="139" clip-path="url(#clipPath69)" fill="rgb(255,255,200)" width="87" height="53" stroke="none"/>
<rect x="884" y="139" clip-path="url(#clipPath69)" fill="none" width="86" height="52"/>
<text x="888" font-size="11" y="153" clip-path="url(#clipPath70)" font-family="'Arial'" stroke="none" xml:space="preserve">&lt;&lt;Java Class&gt;&gt;</text>
<image transform="matrix(1,0,0,1,902,158)" width="16" xlink:show="embed" xlink:type="simple" clip-path="url(#clipPath9)" preserveAspectRatio="none" font-weight="bold" height="16" font-family="'Arial'" x="0" y="0" xlink:href="data:image/png;base64,iVBORw0KGgoAAAANSUhEUgAAABAAAAAQCAYAAAAf8/9hAAACUElEQVR42s2S3UvT&#13;&#10;URjHP7/tNzfn67YgtU0FwUTLmZLRhYGWEfai9kY3elVdRdgfUGkQdGeEFxF2UdhN&#13;&#10;YNqLGhIShElJKtlFVs5B2szNTd3cm3O/fvtJg5l0000PnPOc8z3n+ZznPOfAP5qw&#13;&#10;WXg3MSJ1jD3G7fPIbQmDPh1TuolL5WfZV7Zf+CvgxvM70sDkENbcPDL0yXF92R9g&#13;&#10;1Gajfk8t145fFrYExIJ7P/RRX1GJ1VKKMXUbokokEo1gc37D7pqj680QzVWnEyDq&#13;&#10;eNrDXRwq2UV1cTVHio+RZ8zHYshVfJm5nHXCpOgl+iZG6G1/0Np5935bHOCvSGvN&#13;&#10;ytRSnl9Co/WMQn419ZIXk09x+pwUbi9CVItMzX+WfZSxBTvjPcMKQIx1Lp+bVC1I&#13;&#10;klYJnnbaePS2RxmP278w+Ok14UhYmQdDYRb9jngNFMCi18OCJ8RyMKSIDq+LsZkZ&#13;&#10;GShtFEoQ0IgiarWATtSwGookAkxpBlaDy8wvLSpintGMITUNKRpV5udrmklO0tD9&#13;&#10;YRCP14lOmxQHqGKdxZSNWj7F4f7OStCLJTOHq/Ut7M4vpqGyjqbKRmqLDqCRS5mi&#13;&#10;1VGYXZAIuFjawA+3G/9agFsD7XyVa3BwZxUd525ypeYCjpWfdA4/ZG09zEe7jaai&#13;&#10;w3/+g7Znt6Xu9/1kGQ3kGI2YjTvktHUEwkFm3XMEQmvMLDg5aq3m+okWYcufGIM8&#13;&#10;Ge2nINuMKMrJSRs7IpEo045ZTu6tSwiOX+G3xRbvnWpDpdLJr+LDteJXvD4pg5i+&#13;&#10;Ofj/sF95FuJLLC5pIAAAAABJRU5ErkJggg==" xlink:actuate="onLoad"/>
<text x="918" y="170" clip-path="url(#clipPath71)" font-family="'Arial'" stroke="none" font-weight="bold" xml:space="preserve">Image</text>
<text x="914" font-size="9" y="185" clip-path="url(#clipPath72)" font-family="'Arial'" stroke="none" xml:space="preserve">image</text>
<rect x="784" y="454" clip-path="url(#clipPath73)" fill="rgb(255,255,200)" width="176" height="53" stroke="none"/>
<rect x="784" y="454" clip-path="url(#clipPath73)" fill="none" width="175" height="52"/>
<text x="832" font-size="11" y="468" clip-path="url(#clipPath74)" font-family="'Arial'" stroke="none" xml:space="preserve">&lt;&lt;Java Class&gt;&gt;</text>
<image transform="matrix(1,0,0,1,788,473)" width="16" xlink:show="embed" xlink:type="simple" clip-path="url(#clipPath75)" preserveAspectRatio="none" font-weight="bold" height="16" font-family="'Arial'" x="0" y="0" xlink:href="data:image/png;base64,iVBORw0KGgoAAAANSUhEUgAAABAAAAAQCAYAAAAf8/9hAAACUElEQVR42s2S3UvT&#13;&#10;URjHP7/tNzfn67YgtU0FwUTLmZLRhYGWEfai9kY3elVdRdgfUGkQdGeEFxF2UdhN&#13;&#10;YNqLGhIShElJKtlFVs5B2szNTd3cm3O/fvtJg5l0000PnPOc8z3n+ZznPOfAP5qw&#13;&#10;WXg3MSJ1jD3G7fPIbQmDPh1TuolL5WfZV7Zf+CvgxvM70sDkENbcPDL0yXF92R9g&#13;&#10;1Gajfk8t145fFrYExIJ7P/RRX1GJ1VKKMXUbokokEo1gc37D7pqj680QzVWnEyDq&#13;&#10;eNrDXRwq2UV1cTVHio+RZ8zHYshVfJm5nHXCpOgl+iZG6G1/0Np5935bHOCvSGvN&#13;&#10;ytRSnl9Co/WMQn419ZIXk09x+pwUbi9CVItMzX+WfZSxBTvjPcMKQIx1Lp+bVC1I&#13;&#10;klYJnnbaePS2RxmP278w+Ok14UhYmQdDYRb9jngNFMCi18OCJ8RyMKSIDq+LsZkZ&#13;&#10;GShtFEoQ0IgiarWATtSwGookAkxpBlaDy8wvLSpintGMITUNKRpV5udrmklO0tD9&#13;&#10;YRCP14lOmxQHqGKdxZSNWj7F4f7OStCLJTOHq/Ut7M4vpqGyjqbKRmqLDqCRS5mi&#13;&#10;1VGYXZAIuFjawA+3G/9agFsD7XyVa3BwZxUd525ypeYCjpWfdA4/ZG09zEe7jaai&#13;&#10;w3/+g7Znt6Xu9/1kGQ3kGI2YjTvktHUEwkFm3XMEQmvMLDg5aq3m+okWYcufGIM8&#13;&#10;Ge2nINuMKMrJSRs7IpEo045ZTu6tSwiOX+G3xRbvnWpDpdLJr+LDteJXvD4pg5i+&#13;&#10;Ofj/sF95FuJLLC5pIAAAAABJRU5ErkJggg==" xlink:actuate="onLoad"/>
<text x="804" y="485" clip-path="url(#clipPath76)" font-family="'Arial'" stroke="none" font-weight="bold" xml:space="preserve">InvalidResolutionException</text>
<text x="851" font-size="9" y="500" clip-path="url(#clipPath77)" font-family="'Arial'" stroke="none" xml:space="preserve">exception</text>
<line clip-path="url(#clipPath78)" fill="none" x1="103" x2="103" y1="330" y2="162"/>
<line clip-path="url(#clipPath78)" fill="none" x1="103" x2="325" y1="162" y2="162"/>
<line clip-path="url(#clipPath78)" fill="none" x1="325" x2="325" y1="162" y2="84"/>
<line clip-path="url(#clipPath78)" fill="none" x1="325" x2="402" y1="84" y2="84"/>
<polygon fill="white" clip-path="url(#clipPath79)" points=" 402 84 388 89 388 79" stroke="none"/>
<polygon fill="none" clip-path="url(#clipPath79)" points=" 402 84 388 89 388 79"/>
<line clip-path="url(#clipPath80)" fill="none" x1="929" x2="929" y1="139" y2="76"/>
<line clip-path="url(#clipPath80)" fill="none" x1="929" x2="832" y1="76" y2="76"/>
<text x="845" font-size="11" y="68" clip-path="url(#clipPath81)" font-family="'Arial'" stroke="none" xml:space="preserve">-listeElements</text>
<text x="845" font-size="11" y="91" clip-path="url(#clipPath82)" font-family="'Arial'" stroke="none" xml:space="preserve">0..*</text>
<line clip-path="url(#clipPath83)" fill="none" x1="840" x2="832" y1="72" y2="76" stroke="white"/>
<line clip-path="url(#clipPath83)" fill="none" x1="832" x2="840" y1="76" y2="80" stroke="white"/>
<line clip-path="url(#clipPath84)" fill="none" x1="109" x2="109" y1="383" y2="420"/>
<line clip-path="url(#clipPath84)" fill="none" x1="109" x2="109" y1="420" y2="420"/>
<line clip-path="url(#clipPath84)" fill="none" x1="109" x2="109" y1="420" y2="458"/>
<text x="94" font-size="11" y="442" clip-path="url(#clipPath85)" font-family="'Arial'" stroke="none" xml:space="preserve">-d</text>
<text x="114" font-size="11" y="443" clip-path="url(#clipPath86)" font-family="'Arial'" stroke="none" xml:space="preserve">0..1</text>
<line clip-path="url(#clipPath87)" fill="none" x1="105" x2="109" y1="450" y2="458" stroke="white"/>
<line clip-path="url(#clipPath87)" fill="none" x1="109" x2="113" y1="458" y2="450" stroke="white"/>
<line clip-path="url(#clipPath88)" fill="none" x1="496" x2="496" y1="446" y2="243"/>
<line clip-path="url(#clipPath88)" fill="none" x1="496" x2="496" y1="243" y2="94"/>
<polygon fill="white" clip-path="url(#clipPath89)" points=" 496 94 501 108 491 108" stroke="none"/>
<polygon fill="none" clip-path="url(#clipPath89)" points=" 496 94 501 108 491 108"/>
<line clip-path="url(#clipPath90)" fill="none" x1="364" x2="405" y1="473" y2="473"/>
<line clip-path="url(#clipPath90)" fill="none" x1="405" x2="405" y1="473" y2="473"/>
<line clip-path="url(#clipPath90)" fill="none" x1="405" x2="447" y1="473" y2="473"/>
<text x="427" font-size="11" y="465" clip-path="url(#clipPath91)" font-family="'Arial'" stroke="none" xml:space="preserve">-t</text>
<text x="415" font-size="11" y="488" clip-path="url(#clipPath92)" font-family="'Arial'" stroke="none" xml:space="preserve">0..1</text>
<line clip-path="url(#clipPath93)" fill="none" x1="439" x2="447" y1="477" y2="473" stroke="white"/>
<line clip-path="url(#clipPath93)" fill="none" x1="447" x2="439" y1="473" y2="469" stroke="white"/>
<line clip-path="url(#clipPath94)" fill="none" x1="319" x2="319" y1="447" y2="308"/>
<line clip-path="url(#clipPath94)" fill="none" x1="319" x2="430" y1="308" y2="308"/>
<line clip-path="url(#clipPath94)" fill="none" x1="430" x2="430" y1="308" y2="94"/>
<polygon fill="white" clip-path="url(#clipPath95)" points=" 430 94 435 108 425 108" stroke="none"/>
<polygon fill="none" clip-path="url(#clipPath95)" points=" 430 94 435 108 425 108"/>
<line clip-path="url(#clipPath96)" fill="none" x1="580" x2="580" y1="294" y2="200"/>
<line clip-path="url(#clipPath96)" fill="none" x1="580" x2="580" y1="200" y2="84"/>
<line clip-path="url(#clipPath96)" fill="none" x1="580" x2="536" y1="84" y2="84"/>
<polygon fill="white" clip-path="url(#clipPath97)" points=" 536 84 550 79 550 89" stroke="none"/>
<polygon fill="none" clip-path="url(#clipPath97)" points=" 536 84 550 79 550 89"/>
<line clip-path="url(#clipPath98)" fill="none" x1="536" x2="632" y1="67" y2="67" stroke-dasharray="2,2"/>
<line clip-path="url(#clipPath98)" fill="none" x1="632" x2="632" y1="67" y2="67" stroke-dasharray="2,2"/>
<line clip-path="url(#clipPath98)" fill="none" x1="632" x2="729" y1="67" y2="67" stroke-dasharray="2,2"/>
<polygon fill="white" stroke-dasharray="2,2" clip-path="url(#clipPath99)" points=" 729 67 715 72 715 62" stroke="none"/>
<polygon fill="none" clip-path="url(#clipPath99)" points=" 729 67 715 72 715 62"/>
<line clip-path="url(#clipPath100)" fill="none" x1="927" x2="927" y1="283" y2="237"/>
<line clip-path="url(#clipPath100)" fill="none" x1="927" x2="927" y1="237" y2="237"/>
<line clip-path="url(#clipPath100)" fill="none" x1="927" x2="927" y1="237" y2="192"/>
<text x="898" font-size="11" y="216" clip-path="url(#clipPath101)" font-family="'Arial'" stroke="none" xml:space="preserve">-mov</text>
<text x="932" font-size="11" y="215" clip-path="url(#clipPath102)" font-family="'Arial'" stroke="none" xml:space="preserve">0..*</text>
<line clip-path="url(#clipPath103)" fill="none" x1="931" x2="927" y1="200" y2="192" stroke="white"/>
<line clip-path="url(#clipPath103)" fill="none" x1="927" x2="923" y1="192" y2="200" stroke="white"/>
<line clip-path="url(#clipPath104)" fill="none" x1="211" x2="211" y1="346" y2="221"/>
<line clip-path="url(#clipPath104)" fill="none" x1="211" x2="404" y1="221" y2="221"/>
<line clip-path="url(#clipPath104)" fill="none" x1="404" x2="404" y1="221" y2="94"/>
<polygon fill="white" clip-path="url(#clipPath105)" points=" 404 94 409 108 399 108" stroke="none"/>
<polygon fill="none" clip-path="url(#clipPath105)" points=" 404 94 409 108 399 108"/>
<line clip-path="url(#clipPath106)" fill="none" x1="663" x2="737" y1="304" y2="304"/>
<line clip-path="url(#clipPath106)" fill="none" x1="737" x2="737" y1="304" y2="94"/>
<text x="709" font-size="11" y="118" clip-path="url(#clipPath107)" font-family="'Arial'" stroke="none" xml:space="preserve">-Elist</text>
<text x="742" font-size="11" y="117" clip-path="url(#clipPath108)" font-family="'Arial'" stroke="none" xml:space="preserve">0..*</text>
<line clip-path="url(#clipPath109)" fill="none" x1="741" x2="737" y1="102" y2="94" stroke="white"/>
<line clip-path="url(#clipPath109)" fill="none" x1="737" x2="733" y1="94" y2="102" stroke="white"/>
</g>
</g>
</svg>
